Exploring civility in the Hansard
…
Term prevalence over time

## `summarise()` has grouped output by 'source'. You can override using the `.groups` argument.

## # A tibble: 52 x 3
## # Groups:   source [4]
##    source        term          total_occurrences
##    <fct>         <chr>                     <int>
##  1 House of Reps civility                    280
##  2 House of Reps corteous                      0
##  3 House of Reps discourteous                412
##  4 House of Reps disrespect                 1169
##  5 House of Reps disrespectful               552
##  6 House of Reps impolite                     35
##  7 House of Reps impoliteness                  0
##  8 House of Reps incivility                   10
##  9 House of Reps polite                      889
## 10 House of Reps politeness                   25
## #  with 42 more rows
…
